Build Trait Data from the LEDA Traitbase — build_trait_data_LEDA • GDRarity
…
# Build dataframe using specific leaf area (SLA) trait data across all available species
all_traits <- build_trait_data(columns_to_select = "SLA")
#> Error in build_trait_data(columns_to_select = "SLA"): could not find function "build_trait_data"

# Build dataframe using seed mass trait data across maple species
maple_traits <- build_trait_data(columns_to_select = "seed_mass", genera = "Acer_")
#> Error in build_trait_data(columns_to_select = "seed_mass", genera = "Acer_"): could not find function "build_trait_data"
print(maple_traits)
#> Error: object 'maple_traits' not found

# Build dataframe using canopy height for major tree species
tree_traits <- build_trait_data_LEDA(columns_to_select = "canopy_height", genera = c("Acer_", "Quercus_", "Populus_", "Ulmus_", "Pinus_", "Alnus_", "Betula_", "Salix_", "Abies_", "Fraxinus_", "Tsuga_", "Prunus_"))
print(tree_traits)
#> # A tibble: 105 × 2
#>    species_name        canopy_height
#>    <chr>                       <dbl>
#>  1 Abies_alba                   50  
#>  2 Abies_grandis                50  
#>  3 Abies_nordmanniana           30  
#>  4 Acer_campestre               13.4
#>  5 Acer_monspessulanum          11  
#>  6 Acer_negundo                 11.5
#>  7 Acer_opalus                  12  
#>  8 Acer_platanoides             26.2
#>  9 Acer_pseudoplatanus          27.3
#> 10 Acer_saccharinum             40  
#> # ℹ 95 more rows
…
